5
Lattice="6.303511967579345 2.8654954962903054e-17 3.621224939496617e-17 2.79820246381972e-18 6.303511967579348 6.526447789066446e-17 3.578264338714211e-17 6.518333872325232e-17 6.303511967579345" Properties=species:S:1:pos:R:3 pbc="T T T"
Cs       0.00000000       0.00000000       0.00000000
Pb       3.15175599       3.15175599       3.15175599
I        3.15175599       3.15175599       0.00000000
I        3.15175599       0.00000000       3.15175599
I        0.00000000       3.15175599       3.15175599
