    2.3549604458e+02    2.9222642755e+01   -3.4304353344e+04   -2.3198302466e-02    2.1035004601e-03    4.6521315799e-02    3.3386720736e+01    3.3219423692e+01    3.5448645017e+01
    2.4551826044e+02    3.0466296907e+01   -3.4306785297e+04   -5.9257841432e-02   -1.6271402381e-02    3.9668264185e-02    3.3399679987e+01    3.3221179509e+01    3.5459724409e+01
    2.4157068634e+02    2.9976443466e+01   -3.4305828514e+04    1.1408086924e-01    5.9419869139e-02    1.7672545067e-01    3.3292474765e+01    3.3169284372e+01    3.5402779369e+01
    2.2810785324e+02    2.8305844018e+01   -3.4305713058e+04    6.8372143378e-02    1.3473021534e-02    7.2231092733e-02    3.3293050904e+01    3.3151450675e+01    3.5472244701e+01
    2.4832117973e+02    3.0814110431e+01   -3.4306780499e+04    8.0466759887e-03    4.0479271224e-02    4.7999859216e-02    3.3303522816e+01    3.3155976835e+01    3.5519253154e+01
    2.4256624491e+02    3.0099982069e+01   -3.4305916557e+04   -2.9700237207e-02   -2.3855590278e-02    9.3416682519e-03    3.3209293067e+01    3.3248776481e+01    3.5575799092e+01
    2.3881961644e+02    2.9635063919e+01   -3.4305052242e+04    4.9357699924e-02   -3.0816415774e-02   -1.1217515550e-02    3.3173097227e+01    3.3279716186e+01    3.5607518852e+01
    2.5732465258e+02    3.1931349028e+01   -3.4305756618e+04   -4.0558440568e-02   -4.8861126785e-02   -8.8430387204e-02    3.3269044026e+01    3.3260429104e+01    3.5625343956e+01
    2.4938483763e+02    3.0946099462e+01   -3.4304980270e+04   -7.0142582451e-02   -1.2423369533e-03   -1.0228106393e-01    3.3272193088e+01    3.3299484150e+01    3.5619716949e+01
